Categories:System,Time
License:GPLv3
Web Site:
Source Code:https://github.com/quarck/CalendarNotification
Issue Tracker:https://github.com/quarck/CalendarNotification/issues

Auto Name:Calendar Notifications Plus
Summary:Advanced calendar notifications
Description:
Replace calendar notifications with advanced notifications, allowing custom
snooze times and reboot notifications persistence. The app is focusing on making
its functionality as transparent as possible, notification would behave in the
same way as stock calendar notifications. All calendar applications should be
handled correctly in theory.
.

Repo Type:git
Repo:https://github.com/quarck/CalendarNotification

Build:1.0.1,2
    commit=ed8f05c87f90e982885e9198999edb7fbe92612e
    subdir=app
    gradle=yes

Build:1.0.3,5
    commit=Release_1.0.3
    subdir=app
    gradle=yes

Build:1.0.9,10
    commit=Release_1.0.9
    subdir=app
    gradle=yes

Build:1.0.10,11
    commit=Release_1.0.10
    subdir=app
    gradle=yes

Build:1.0.11,12
    commit=Release_1.0.11
    subdir=app
    gradle=yes

Build:1.0.12,13
    commit=Release_1.0.12
    subdir=app
    gradle=yes

Build:1.0.16,16
    commit=Release_1.0.16
    subdir=app
    gradle=yes

Build:1.0.17,17
    commit=Release_1.0.17
    subdir=app
    gradle=yes

Build:1.0.18,18
    commit=Release_1.0.18
    subdir=app
    gradle=yes

Build:1.0.19,19
    commit=Release_1.0.19
    subdir=app
    gradle=yes

Build:1.0.20,20
    commit=Release_1.0.20
    subdir=app
    gradle=yes

Build:1.0.21,21
    commit=Release_1.0.21
    subdir=app
    gradle=yes

Build:1.0.22,22
    commit=Release_1.0.22
    subdir=app
    gradle=yes

Build:1.0.23,23
    commit=Release_1.0.23
    subdir=app
    gradle=yes

Build:1.0.24,24
    commit=Release_1.0.24
    subdir=app
    gradle=yes

Build:1.1.0,1000
    disable=buildToolsVersion is not specified
    commit=Release_1.1.0
    subdir=app
    gradle=yes

Build:1.1.1,1001
    disable=buildToolsVersion is not specified
    commit=Release_1.1.1
    subdir=app
    gradle=yes

Build:1.1.4,1004
    disable=buildToolsVersion is not specified
    commit=Release_1.1.4
    subdir=app
    gradle=yes

Build:1.1.6,1006
    commit=Release_1.1.6
    subdir=app
    gradle=yes

Build:1.1.7,1007
    commit=Release_1.1.7
    subdir=app
    gradle=yes

Build:1.2.0,2000
    commit=Release_1.2.0
    subdir=app
    gradle=yes

Build:1.2.1,2001
    commit=Release_1.2.1
    subdir=app
    gradle=yes

Build:1.2.2,2002
    commit=Release_1.2.2
    subdir=app
    gradle=yes

Build:1.3.0,3002
    commit=Release_1.3.0
    subdir=app
    gradle=yes

Build:1.3.2,3004
    commit=Release_1.3.2
    subdir=app
    gradle=yes

Build:1.3.3,3005
    commit=Release_1.3.3
    subdir=app
    gradle=yes

Build:1.3.4,3006
    commit=Release_1.3.4
    subdir=app
    gradle=yes

Build:1.3.5,3007
    commit=Release_1.3.5
    subdir=app
    gradle=yes

Build:1.3.7,3009
    commit=Release_1.3.7
    subdir=app
    gradle=yes

Build:1.3.8,3010
    commit=Release_1.3.8
    subdir=app
    gradle=yes

Build:1.3.9,3011
    commit=Release_1.3.9
    subdir=app
    gradle=yes

Build:1.3.10,3012
    commit=Release_1.3.10
    subdir=app
    gradle=yes

Build:1.3.11,3013
    commit=Release_1.3.11
    subdir=app
    gradle=yes

Build:1.3.12,3014
    commit=Release_1.3.12
    subdir=app
    gradle=yes

Build:1.3.13,3015
    commit=Release_1.3.13
    subdir=app
    gradle=yes

Build:1.3.15,3017
    commit=Release_1.3.15
    subdir=app
    gradle=yes

Build:1.3.16,3018
    commit=Release_1.3.16
    subdir=app
    gradle=yes

Build:1.3.17,3019
    commit=Release_1.3.17
    subdir=app
    gradle=yes

Build:1.3.18,3020
    commit=Release_1.3.18
    subdir=app
    gradle=yes

Build:1.3.19,3021
    commit=Release_1.3.19
    subdir=app
    gradle=yes

Build:1.3.20,3022
    commit=Release_1.3.20
    subdir=app
    gradle=yes

Auto Update Mode:Version Release_%v
Update Check Mode:Tags ^Release
Current Version:1.3.20
Current Version Code:3022
